Analysis Cercospora Proth
…
CERC_PROTH_data <- right_join(PROTH_yield_data, n_lesion_plot,
                  by = c("year","trial_ID","plot")) %>%
                  filter(!field %in% c("WIN")) %>%
  mutate(
    pressure = ifelse(inc > median(inc), "high", "low"))

CERC_PROTH_data

# A tibble: 65 × 21
    year trial_ID    trial env   field  plot   blk   trt gen   fung  stage rate 
   <dbl> <chr>       <chr> <chr> <chr> <dbl> <dbl> <dbl> <chr> <chr> <chr> <chr>
 1  2024 24-CER_PRO… CER_… P2C3  RRS2    101     1     5 PVL03 proth B+H   1x   
 2  2024 24-CER_PRO… CER_… P2C3  RRS2    102     2     4 PVL03 proth B     4x   
 3  2024 24-CER_PRO… CER_… P2C3  RRS2    103     3     3 PVL03 proth B     2x   
 4  2024 24-CER_PRO… CER_… P2C3  RRS2    104     4     1 PVL03 UTC   UTC   UTC  
 5  2024 24-CER_PRO… CER_… P2C3  RRS2    201     1     3 PVL03 proth B     2x   
 6  2024 24-CER_PRO… CER_… P2C3  RRS2    202     2     1 PVL03 UTC   UTC   UTC  
 7  2024 24-CER_PRO… CER_… P2C3  RRS2    203     3     2 PVL03 proth B     1x   
 8  2024 24-CER_PRO… CER_… P2C3  RRS2    204     4     3 PVL03 proth B     2x   
 9  2024 24-CER_PRO… CER_… P2C3  RRS2    301     1     4 PVL03 proth B     4x   
10  2024 24-CER_PRO… CER_… P2C3  RRS2    302     2     2 PVL03 proth B     1x   
# ℹ 55 more rows
# ℹ 9 more variables: total <chr>, head <chr>, yld <dbl>, kg_ha <dbl>,
#   NBLS <chr>, CPB <dbl>, n_lesion <int>, inc <dbl>, pressure <chr>
…
